2021-06-15 20:24:17.8020 INFO The worker is validating the deadlines
2021-06-15 20:24:25.0665 INFO All the deadlines are valid
2021-06-15 20:24:25.3348 WARN The worker will try to validate the deadlines after 24 hours
2021-06-15 20:44:24.9826 INFO The worker is validating the deadlines
2021-06-15 20:44:28.3001 INFO All the deadlines are valid
2021-06-15 20:44:28.3103 WARN The worker will try to validate the deadlines after 24 hours
2021-06-15 20:46:52.2842 INFO User created a new account with password.
2021-06-15 20:47:39.6647 INFO User created a new account with password.
2021-06-15 20:48:12.0290 INFO User created a new account with password.
2021-06-15 20:48:55.3328 INFO User created a new account with password.
2021-06-15 20:49:37.6221 INFO User created a new account with password.
2021-06-15 20:50:27.9223 INFO User created a new account with password.
2021-06-15 20:51:18.7396 INFO User created a new account with password.
2021-06-15 20:52:22.2421 INFO User created a new account with password.
2021-06-15 20:53:08.4652 INFO User created a new account with password.
2021-06-15 20:53:57.5557 INFO User created a new account with password.
2021-06-15 20:54:44.8167 INFO User created a new account with password.
2021-06-15 20:55:12.8206 INFO User created a new account with password.
2021-06-15 20:55:52.9760 INFO User created a new account with password.
2021-06-15 20:56:27.5352 INFO User created a new account with password.
2021-06-15 20:56:59.3780 INFO User created a new account with password.
2021-06-15 20:58:12.1911 INFO User created a new account with password.
2021-06-15 20:58:46.2294 INFO User created a new account with password.
2021-06-15 20:59:28.5568 INFO User created a new account with password.
2021-06-15 21:00:02.0730 INFO User created a new account with password.
2021-06-15 21:00:34.7763 INFO User created a new account with password.
2021-06-15 21:01:34.3732 INFO User created a new account with password.
2021-06-15 21:02:17.1716 INFO User created a new account with password.
2021-06-15 21:03:02.2846 INFO User created a new account with password.
2021-06-15 21:03:38.7321 INFO User created a new account with password.
2021-06-15 21:04:28.3984 INFO User created a new account with password.
2021-06-15 21:34:06.8566 INFO The worker is validating the deadlines
2021-06-15 21:34:08.5397 INFO All the deadlines are valid
2021-06-15 21:34:08.5397 WARN The worker will try to validate the deadlines after 24 hours
2021-06-15 22:08:19.3729 INFO The allocation process starts - step 1
2021-06-15 22:08:25.9171 INFO The allocation process has been finished
2021-06-15 22:08:25.9282 INFO The allocation process - step 2
2021-06-15 22:08:38.7196 INFO A new iteration is needed
2021-06-15 22:32:06.5601 INFO The worker is validating the deadlines
2021-06-15 22:32:08.8107 INFO All the deadlines are valid
2021-06-15 22:32:08.8107 WARN The worker will try to validate the deadlines after 24 hours
2021-06-15 23:19:13.1596 INFO The worker is validating the deadlines
2021-06-15 23:19:15.1933 INFO All the deadlines are valid
2021-06-15 23:19:15.1933 WARN The worker will try to validate the deadlines after 24 hours
2021-06-15 23:20:14.1245 INFO The worker is validating the deadlines
2021-06-15 23:20:16.0574 INFO All the deadlines are valid
2021-06-15 23:20:16.0574 WARN The worker will try to validate the deadlines after 24 hours
2021-06-15 23:21:59.8395 INFO The allocation process starts - step 1
2021-06-15 23:22:10.2351 INFO The allocation process starts - step 1
2021-06-15 23:22:22.3933 INFO The allocation process starts - step 1
2021-06-15 23:35:22.6713 INFO The allocation process starts - step 1
2021-06-15 23:36:09.3719 INFO The allocation process starts - step 1
2021-06-15 23:36:16.6839 INFO The allocation process has been finished
2021-06-15 23:36:16.6955 INFO The allocation process - step 2
2021-06-15 23:36:26.4451 INFO A new iteration is needed
2021-06-15 23:39:10.9074 INFO The allocation process starts - step 1
2021-06-15 23:39:17.6867 INFO The allocation process has been finished
2021-06-15 23:39:17.6867 INFO The allocation process - step 2
2021-06-15 23:39:28.0447 INFO A new iteration is needed
2021-06-15 23:41:33.2512 INFO The allocation process starts - step 1
2021-06-15 23:41:40.0282 INFO The allocation process has been finished
2021-06-15 23:41:40.0285 INFO The allocation process - step 2
2021-06-15 23:41:49.8410 INFO A new iteration is needed
2021-06-15 23:42:26.6092 INFO The allocation process starts - step 1
2021-06-15 23:42:31.8917 INFO The allocation process has been finished
2021-06-15 23:42:31.8917 INFO The allocation process - step 2
2021-06-15 23:42:42.7270 INFO A new iteration is needed
2021-06-15 23:43:06.3560 INFO The allocation process starts - step 1
2021-06-15 23:43:11.6109 INFO The allocation process has been finished
2021-06-15 23:43:11.6374 INFO The allocation process - step 2
2021-06-15 23:43:22.7741 INFO A new iteration is needed
